public class MiaClass{

    public static Main(){
        $var = "testing";
        method($var);
    }


    public static method($prova){
        $prova = "prova";

        switch($prova){
            case "prova":{
                $prova = "Questa stringa manda in eccezione l'analizzatore lessicale;
                break;
            }

            default:{
                $prova = "di nuovo ciao";
            }
        }
        return $prova;
    }
}